simulation/qsim/projeto_ula.msim.vcd
$comment
	File created using the following command:
		vcd file projeto_ula.msim.vcd -direction
$end
$date
	Wed May 15 16:08:21 2024
$end
$version
	ModelSim Version 2020.1
$end
$timescale
	1ps
$end

$scope module decimal_sep_5bits_vlg_vec_tst $end
$var reg 5 ! A [4:0] $end
$var wire 1 " Carry [3] $end
$var wire 1 # Carry [2] $end
$var wire 1 $ Carry [1] $end
$var wire 1 % Carry [0] $end
$var wire 1 & digito [3] $end
$var wire 1 ' digito [2] $end
$var wire 1 ( digito [1] $end
$var wire 1 ) digito [0] $end

$scope module i1 $end
$var wire 1 * gnd $end
$var wire 1 + vcc $end
$var wire 1 , unknown $end
$var tri1 1 - devclrn $end
$var tri1 1 . devpor $end
$var tri1 1 / devoe $end
$var wire 1 0 Carry[3]~output_o $end
$var wire 1 1 Carry[2]~output_o $end
$var wire 1 2 Carry[1]~output_o $end
$var wire 1 3 Carry[0]~output_o $end
$var wire 1 4 digito[3]~output_o $end
$var wire 1 5 digito[2]~output_o $end
$var wire 1 6 digito[1]~output_o $end
$var wire 1 7 digito[0]~output_o $end
$var wire 1 8 A[4]~input_o $end
$var wire 1 9 A[3]~input_o $end
$var wire 1 : A[2]~input_o $end
$var wire 1 ; instor[1]~0_combout $end
$var wire 1 < A[1]~input_o $end
$var wire 1 = instor[0]~1_combout $end
$var wire 1 > inst1|inst6|inst4|inst~0_combout $end
$var wire 1 ? inst1|inst5|inst4|inst~combout $end
$var wire 1 @ inst1|inst4|inst|inst~0_combout $end
$var wire 1 A A[0]~input_o $end
$upscope $end
$upscope $end
$enddefinitions $end
#0
$dumpvars
b11000 !
0%
1$
0#
0"
0)
0(
1'
0&
0*
1+
x,
1-
1.
1/
00
01
12
03
04
15
06
07
18
19
0:
1;
0<
0=
1>
0?
0@
0A
$end
#5000
b1000 !
08
1?
0>
0;
02
14
05
0'
1&
0$
#10000
b1100 !
b1110 !
b1111 !
b11111 !
1<
1:
18
1A
17
1>
1)
1=
1;
12
13
04
0&
1%
1$
#15000
b10111 !
b10011 !
b10010 !
b10 !
0:
09
08
0A
07
0)
1@
0=
0;
02
03
16
1(
0%
0$
#20000
b1010 !
b1110 !
1:
19
0?
0@
1=
13
06
15
1'
0(
1%
#25000
b11110 !
b10110 !
b10010 !
0:
09
18
1?
0>
14
05
0'
1&
#30000
b10 !
08
1>
1@
0=
03
16
04
0&
1(
0%
#35000
b1010 !
19
0@
1=
13
06
0(
1%
#40000
b1000 !
b1100 !
b100 !
0<
1:
09
0?
0=
03
15
1'
0%
#45000
b10100 !
b10110 !
b10010 !
1<
0:
18
1?
0>
1=
13
14
05
0'
1&
1%
#50000
b11010 !
b11000 !
0<
19
0?
1>
0=
1;
12
03
04
15
1'
0&
0%
1$
#55000
b1000 !
b1100 !
b100 !
1:
09
08
0;
02
0$
#60000
b1100 !
19
1?
1@
1=
13
16
05
0'
1(
1%
#65000
b11100 !
b11000 !
0:
18
0?
0@
0=
1;
12
03
06
15
1'
0(
0%
1$
#70000
b11001 !
b11011 !
b10011 !
b11 !
b111 !
1<
1:
09
08
1A
17
1)
1@
0;
02
16
1(
0$
#75000
b10111 !
18
1?
1;
12
05
0'
1$
#80000
b10101 !
b10001 !
0<
0:
0?
1=
0;
02
13
15
1'
1%
0$
#85000
b11001 !
b11011 !
1<
19
0=
1;
12
03
0%
1$
#90000
b11111 !
b11101 !
0<
1:
1?
0>
0@
06
14
05
0'
1&
0(
#95000
b1101 !
b101 !
b111 !
1<
09
08
0?
1>
1@
0;
02
16
04
15
1'
0&
1(
0$
#100000
b11 !
0:
1?
05
0'
#105000
b10011 !
b11011 !
b11111 !
1:
19
18
0@
1=
1;
12
13
06
0(
1%
1$
#110000
b11110 !
b11010 !
0:
0A
07
0?
0)
1@
0=
03
16
15
1'
1(
0%
#115000
b10010 !
b10011 !
b10111 !
1:
09
1A
17
1?
1)
05
0'
#120000
b10101 !
b11101 !
0<
19
0>
0@
06
14
1&
0(
#125000
b10101 !
09
1>
04
0&
#130000
b10100 !
b11100 !
19
0A
07
0>
0)
14
1&
#135000
b11000 !
b11010 !
b11011 !
1<
0:
1A
17
0?
1>
1)
1@
16
04
15
1'
0&
1(
#145000
b1011 !
b1001 !
b1000 !
0<
08
0A
07
1?
0>
0)
0@
0;
02
06
14
05
0'
1&
0(
0$
#150000
b1001 !
1A
17
1)
#155000
b1101 !
b11101 !
1:
18
1;
12
1$
#160000
b11111 !
b11110 !
b11010 !
1<
0:
0A
07
0?
1>
0)
1@
16
04
15
1'
0&
1(
#165000
b10010 !
b10000 !
b10001 !
b10101 !
0<
1:
09
1A
17
1?
1)
0@
06
05
0'
0(
#170000
b101 !
b100 !
b0 !
0:
08
0A
07
0)
0;
02
0$
#175000
b10 !
b10010 !
b10011 !
b10111 !
1<
1:
18
1A
17
1)
1@
1;
12
16
1(
1$
#180000
b11111 !
b11101 !
b11100 !
b11000 !
0<
0:
19
0A
07
0?
0)
0@
06
15
1'
0(
#185000
b1000 !
b0 !
b10 !
b11 !
b111 !
1<
1:
09
08
1A
17
1)
1@
0;
02
16
1(
0$
#190000
b1111 !
b1101 !
0<
19
1?
1=
13
05
0'
1%
#195000
b1100 !
b1000 !
0:
0A
07
0>
0)
0@
0=
03
06
14
1&
0(
0%
#200000
b1010 !
1<
1>
1=
13
04
0&
1%
#205000
b11010 !
b11000 !
0<
18
0?
0=
1;
12
03
15
1'
0%
1$
#210000
b11100 !
b11110 !
1<
1:
1?
1=
13
05
0'
1%
#215000
b11010 !
b11000 !
0<
0:
0?
0=
03
15
1'
0%
#220000
b10000 !
b10001 !
b1 !
b101 !
1:
09
08
1A
17
1)
0;
02
0$
#225000
b111 !
b110 !
b10110 !
b10010 !
1<
0:
18
0A
07
1?
0>
0)
1=
13
14
05
0'
1&
1%
#230000
b11010 !
19
0?
1>
1@
0=
1;
12
03
16
04
15
1'
0&
1(
0%
1$
#235000
b11000 !
b11001 !
b1001 !
0<
08
1A
17
1?
0>
1)
0@
0;
02
06
14
05
0'
1&
0(
0$
#240000
b1101 !
b101 !
b10101 !
1:
09
18
1>
1;
12
04
0&
1$
#245000
b10111 !
b111 !
1<
08
0?
1@
0;
02
16
15
1'
1(
0$
#250000
b11 !
b1011 !
b1001 !
b11001 !
0<
0:
19
18
0@
1;
12
06
0(
1$
#260000
b11101 !
1:
1?
0>
14
05
0'
1&
#265000
b11111 !
1<
1>
1=
13
04
0&
1%
#270000
b11110 !
b1110 !
b1010 !
b1000 !
0<
0:
08
0A
07
0>
0)
0=
0;
02
03
14
1&
0%
0$
#275000
b1001 !
b11001 !
b11101 !
b11111 !
1<
1:
18
1A
17
1>
1)
1=
1;
12
13
04
0&
1%
1$
#280000
b10111 !
b10110 !
b110 !
b100 !
0<
09
08
0A
07
0?
0)
0=
0;
02
03
15
1'
0%
0$
#285000
b1100 !
b1101 !
19
1A
17
1?
1)
1@
1=
13
16
05
0'
1(
1%
#290000
b1001 !
b1011 !
1<
0:
0@
06
0(
#295000
b11011 !
b11010 !
18
0A
07
0?
0)
1@
0=
1;
12
03
16
15
1'
1(
0%
1$
#300000
b10010 !
b10110 !
b10100 !
b100 !
b101 !
0<
1:
09
08
1A
17
1)
0@
0;
02
06
0(
0$
#305000
b1101 !
b1001 !
b1011 !
b1010 !
1<
0:
19
0A
07
1?
0)
1=
13
05
0'
1%
#310000
b1011 !
1A
17
1)
#315000
b11 !
b111 !
b110 !
1:
09
0A
07
0?
0)
1@
0=
03
16
15
1'
1(
0%
#320000
b100 !
0<
0@
06
0(
#325000
b1100 !
b1101 !
19
1A
17
1?
1)
1@
1=
13
16
05
0'
1(
1%
#330000
b1001 !
b1011 !
1<
0:
0@
06
0(
#335000
b1111 !
1:
0?
15
1'
#340000
b11111 !
b11101 !
0<
18
1?
0>
0=
1;
12
03
14
05
0'
1&
0%
1$
#345000
b10101 !
b10100 !
b10110 !
1<
09
0A
07
1>
0)
1@
16
04
0&
1(
#350000
b10010 !
b10 !
b1010 !
b1011 !
b1001 !
0<
0:
19
08
1A
17
0>
1)
0@
0;
02
06
14
1&
0(
0$
#355000
b1 !
b0 !
09
0A
07
1>
0)
04
0&
#360000
b10 !
b1010 !
b1011 !
1<
19
1A
17
1)
1=
13
1%
#365000
b11011 !
b11010 !
18
0A
07
0?
0)
1@
0=
1;
12
03
16
15
1'
1(
0%
1$
#370000
b11110 !
b11100 !
b1100 !
0<
1:
08
1?
1=
0;
02
13
05
0'
1%
0$
#375000
b1110 !
1<
0?
0@
06
15
1'
0(
#380000
b110 !
b111 !
b11 !
b10011 !
0:
09
18
1A
17
1?
0>
1)
14
05
0'
1&
#385000
b10010 !
b10110 !
b110 !
1:
08
0A
07
0?
1>
0)
1@
0=
03
16
04
15
1'
0&
1(
0%
#395000
b100 !
b101 !
0<
1A
17
1)
0@
06
0(
#400000
b1 !
b10001 !
b10000 !
0:
18
0A
07
0)
1@
1=
13
16
1(
1%
#405000
b10010 !
b10 !
1<
08
1?
0=
03
05
0'
0%
#410000
b1010 !
b1000 !
0<
19
0>
0@
06
14
1&
0(
#415000
b1001 !
b1011 !
1<
1A
17
1>
1)
1=
13
04
0&
1%
#420000
b11011 !
b10011 !
09
18
0>
14
1&
#425000
b10001 !
0<
0?
1>
1@
16
04
15
1'
0&
1(
#430000
b10101 !
b10100 !
b100 !
b1100 !
b1110 !
1<
1:
19
08
0A
07
0)
0@
06
0(
#435000
b1010 !
b11010 !
b10010 !
0:
09
18
1?
0>
14
05
0'
1&
#440000
b10000 !
0<
0?
1>
1@
16
04
15
1'
0&
1(
#445000
b10100 !
b10110 !
1<
1:
1?
0=
1;
12
03
05
0'
0%
1$
#450000
b110 !
b1110 !
b1010 !
b1000 !
0<
0:
19
08
0>
0@
0;
02
06
14
1&
0(
0$
#455000
b1001 !
1A
17
1)
#460000
b1 !
b101 !
1:
09
0?
1>
04
15
1'
0&
#465000
b100 !
b1100 !
19
0A
07
1?
0)
1@
1=
13
16
05
0'
1(
1%
#470000
b11100 !
b11110 !
b11010 !
b11011 !
b10011 !
1<
0:
09
18
1A
17
0>
1)
0@
06
14
1&
0(
#475000
b10010 !
0A
07
0)
#480000
b10 !
b0 !
b100 !
b1100 !
0<
1:
19
08
1>
1@
16
04
0&
1(
#485000
b1101 !
b11101 !
b11111 !
b11011 !
1<
0:
18
1A
17
0?
1)
0=
1;
12
03
15
1'
0%
1$
#490000
b10011 !
b11 !
b1 !
b101 !
0<
1:
09
08
0@
0;
02
06
0(
0$
#495000
b1101 !
b1111 !
b1011 !
1<
0:
19
1?
1=
13
05
0'
1%
#500000
b1010 !
b11010 !
18
0A
07
0?
0)
1@
0=
1;
12
03
16
15
1'
1(
0%
1$
#505000
b11011 !
b1011 !
08
1A
17
1?
1)
0@
1=
0;
02
13
06
05
0'
0(
1%
0$
#510000
b11 !
b10 !
09
0A
07
0)
1@
0=
03
16
1(
0%
#515000
b110 !
b10110 !
1:
18
1;
12
1$
#520000
b10100 !
b10101 !
0<
1A
17
1)
0@
06
0(
#525000
b10001 !
b10011 !
b10010 !
1<
0:
0A
07
0>
0)
1=
0;
02
13
14
1&
1%
0$
#530000
b10 !
b110 !
1:
08
0?
1>
1@
0=
03
16
04
15
1'
0&
1(
0%
#535000
b1110 !
b1100 !
b1101 !
b1001 !
0<
0:
19
1A
17
1?
0>
1)
0@
06
14
05
0'
1&
0(
#540000
b1 !
b101 !
1:
09
0?
1>
04
15
1'
0&
#545000
b111 !
b110 !
b1110 !
1<
19
0A
07
0)
1=
13
1%
#550000
b1010 !
b1000 !
b1001 !
0<
0:
1A
17
1?
0>
1)
0=
03
14
05
0'
1&
0%
#555000
b11001 !
b10001 !
b10101 !
1:
09
18
1>
1;
12
04
0&
1$
#560000
b10111 !
b10011 !
1<
0:
0>
1=
0;
02
13
14
1&
1%
0$
#565000
b10010 !
b10 !
b1010 !
19
08
0A
07
1>
0)
04
0&
#570000
b1000 !
b1100 !
b100 !
0<
1:
09
0?
0=
03
15
1'
0%
#575000
b101 !
b10101 !
b10001 !
b11001 !
0:
19
18
1A
17
1)
1;
12
1$
#580000
b11011 !
b11010 !
b1010 !
b10 !
1<
09
08
0A
07
1?
0)
1@
0;
02
16
05
0'
1(
0$
#585000
b0 !
b1 !
b10001 !
b11001 !
0<
19
18
1A
17
0?
1)
0@
1;
12
06
15
1'
0(
1$
#590000
b11000 !
0A
07
0)
#595000
b11010 !
1<
1@
16
1(
#600000
b11110 !
b11111 !
b11101 !
0<
1:
1A
17
1?
0>
1)
0@
06
14
05
0'
1&
0(
#605000
b1101 !
b101 !
b1 !
0:
09
08
1>
0;
02
04
0&
0$
#610000
b1001 !
b1101 !
1:
19
1@
1=
13
16
1(
1%
#615000
b1111 !
b11111 !
b10111 !
b10011 !
1<
0:
09
18
0>
0@
06
14
1&
0(
#620000
b10010 !
b10000 !
0<
0A
07
0?
1>
0)
1@
16
04
15
1'
0&
1(
#625000
b10100 !
b10101 !
1:
1A
17
1?
1)
0@
0=
1;
12
03
06
05
0'
0(
0%
1$
#630000
b10001 !
0:
0?
1@
1=
0;
02
13
16
15
1'
1(
1%
0$
#635000
b1 !
b1001 !
b1101 !
1:
19
08
1?
05
0'
#640000
b11101 !
b10101 !
09
18
0@
0=
1;
12
03
06
0(
0%
1$
#645000
b10100 !
0A
07
0)
#650000
b10110 !
b10010 !
b10 !
b1010 !
1<
0:
19
08
1=
0;
02
13
1%
0$
#655000
b1011 !
b11011 !
b10011 !
09
18
1A
17
0>
1)
14
1&
#660000
b10001 !
b1 !
b1001 !
0<
19
08
0=
03
0%
#665000
b1000 !
b0 !
09
0A
07
1>
0)
04
0&
#670000
b100 !
b110 !
1<
1:
0?
1@
16
15
1'
1(
#675000
b10110 !
18
1?
1;
12
05
0'
1$
#680000
b10111 !
b11111 !
b11011 !
b1011 !
0:
19
08
1A
17
1)
0@
1=
0;
02
13
06
0(
1%
0$
#685000
b1001 !
b1000 !
b11000 !
0<
18
0A
07
0?
0)
0=
1;
12
03
15
1'
0%
1$
#690000
b10000 !
b10001 !
09
1A
17
1)
1@
1=
0;
02
13
16
1(
1%
0$
#695000
b10101 !
b10111 !
b111 !
1<
1:
08
0=
03
0%
#705000
b11 !
b1 !
b10001 !
0<
0:
18
1=
13
1%
#710000
b10011 !
b11 !
1<
08
1?
0=
03
05
0'
0%
#715000
b1011 !
b11011 !
19
18
0?
1;
12
15
1'
1$
#720000
b11001 !
b1001 !
0<
08
1?
0>
0@
0;
02
06
14
05
0'
1&
0(
0$
#725000
b1000 !
b1100 !
b100 !
b10100 !
1:
09
18
0A
07
1>
0)
1;
12
04
0&
1$
#730000
b10101 !
b10001 !
b1 !
0:
08
1A
17
1)
0;
02
0$
#735000
b11 !
b1011 !
b11011 !
1<
19
18
0?
1@
1;
12
16
15
1'
1(
1$
#740000
b11001 !
b10001 !
0<
09
1=
0;
02
13
1%
0$
#745000
b10000 !
b0 !
b10 !
1<
08
0A
07
1?
0)
0=
03
05
0'
0%
#750000
b110 !
b1110 !
b1111 !
b11111 !
b11101 !
0<
1:
19
18
1A
17
0>
1)
0@
1;
12
06
14
1&
0(
1$
#755000
b11001 !
b11000 !
0:
0A
07
0?
1>
0)
04
15
1'
0&
#760000
b11010 !
b11110 !
1<
1:
1?
1=
13
05
0'
1%
#765000
b11100 !
b11000 !
0<
0:
0?
0=
03
15
1'
0%
#770000
b10000 !
b0 !
b1 !
b11 !
b111 !
1<
1:
09
08
1A
17
1)
1@
0;
02
16
1(
0$
#775000
b1111 !
b1110 !
b1100 !
b1000 !
0<
0:
19
0A
07
1?
0>
0)
0@
06
14
05
0'
1&
0(
#780000
b1001 !
b1101 !
1:
1A
17
1>
1)
1@
1=
13
16
04
0&
1(
1%
#785000
b101 !
b111 !
b110 !
b10 !
1<
0:
09
0A
07
0)
0=
03
0%
#790000
b1010 !
b1011 !
b1111 !
1:
19
1A
17
0?
1)
0@
1=
13
06
15
1'
0(
1%
#795000
b11111 !
b10111 !
b10110 !
b10010 !
0:
09
18
0A
07
1?
0>
0)
14
05
0'
1&
#800000
b10000 !
b0 !
b1 !
0<
08
1A
17
1>
1)
0=
03
04
0&
0%
#805000
b101 !
b10101 !
b10100 !
1:
18
0A
07
0)
1;
12
1$
#810000
b100 !
08
0?
0;
02
15
1'
0$
#815000
b1100 !
b1000 !
b11000 !
0:
19
18
1;
12
1$
#820000
b11001 !
b10001 !
b10101 !
b101 !
1:
09
08
1A
17
1)
0;
02
0$
#825000
b111 !
b110 !
b1110 !
1<
19
0A
07
0)
1=
13
1%
#830000
b11110 !
18
1?
1;
12
05
0'
1$
#835000
b11010 !
b11011 !
b10011 !
0:
09
1A
17
0>
1)
0;
02
14
1&
0$
#840000
b10001 !
b11001 !
0<
19
0?
1>
0=
1;
12
03
04
15
1'
0&
0%
1$
#845000
b11000 !
0A
07
0)
#850000
b1000 !
b1100 !
b1110 !
b110 !
b111 !
1<
1:
09
08
1A
17
1)
1@
0;
02
16
1(
0$
#855000
b11 !
b1 !
b1001 !
b1000 !
0<
0:
19
0A
07
1?
0>
0)
0@
06
14
05
0'
1&
0(
#860000
b0 !
b1 !
09
1A
17
1>
1)
04
0&
#865000
b10001 !
b10101 !
b11101 !
b11100 !
1:
19
18
0A
07
0>
0)
1;
12
14
1&
1$
#875000
b11110 !
b11010 !
1<
0:
0?
1>
1@
16
04
15
1'
0&
1(
#880000
b10010 !
b10011 !
b10001 !
b10101 !
0<
1:
09
1A
17
1?
1)
0@
06
05
0'
0(
#885000
b10111 !
1<
1@
16
1(
#890000
b10101 !
0<
0@
06
0(
#895000
b101 !
b1101 !
b1100 !
b1000 !
b1010 !
1<
0:
19
08
0A
07
0)
1=
0;
02
13
1%
0$
#900000
b11010 !
b11011 !
b11111 !
1:
18
1A
17
1)
1;
12
1$
#905000
b11101 !
b11001 !
0<
0:
0?
0=
03
15
1'
0%
#910000
b1001 !
b1000 !
b1010 !
b1110 !
1<
1:
08
0A
07
0)
1=
0;
02
13
1%
0$
#915000
b110 !
09
1@
0=
03
16
1(
0%
#920000
b10110 !
b10010 !
b11010 !
0:
19
18
1;
12
1$
#925000
b11011 !
b10011 !
09
1A
17
1?
0>
1)
0@
1=
0;
02
13
06
14
05
0'
1&
0(
1%
0$
#930000
b10001 !
b10000 !
0<
0A
07
0?
1>
0)
1@
16
04
15
1'
0&
1(
#940000
b10100 !
1:
1?
0@
0=
1;
12
03
06
05
0'
0(
0%
1$
#945000
b100 !
b101 !
b1 !
0:
08
1A
17
1)
0;
02
0$
#950000
b1001 !
b1000 !
19
0A
07
0>
0)
14
1&
#955000
b11000 !
b11100 !
b10100 !
1:
09
18
1>
1;
12
04
0&
1$
#960000
b10110 !
b10111 !
b10011 !
b11011 !
1<
0:
19
1A
17
0?
1)
1@
16
15
1'
1(
#965000
b1011 !
b1010 !
b10 !
09
08
0A
07
1?
0)
0;
02
05
0'
0$
#970000
b110 !
1:
0?
15
1'
#975000
b100 !
b10100 !
b11100 !
0<
19
18
1?
0>
0@
1;
12
06
14
05
0'
1&
0(
1$
#980000
b11101 !
b11001 !
b1001 !
0:
08
1A
17
1)
0;
02
0$
#985000
b1 !
b0 !
09
0A
07
1>
0)
04
0&
#990000
b10 !
b1010 !
1<
19
1=
13
1%
#995000
b1110 !
b11110 !
b11111 !
b10111 !
1:
09
18
1A
17
1)
1@
0=
1;
12
03
16
1(
0%
1$
